Incarceration Rates in the USA - Johnny's Blog
…
Aside from the clear racial discrepancies that are demonstrated by this plot, it is worth noting that the ‘Other’ category appears to vanish just when the ‘Native American’, ‘Latino’ and ‘Asian’ categories begin to appear - this suggests that the latter categories were likely once grouped as ‘Other’. These are the types of useful insights you can gain instantly from simply plotting your data: visualisation is a great tool for pattern detection!

Geospatial analysis

This next section entails my first time to plot geospatial data. Luckily (for me), R comes equipped with several packages to help you to do this, most notably the maps package which contains enough data on various large countries (such as the USA and Canada) that you can integrate it with ggplot2 fairly easily.

My goal in this section is to develop on the theme we’ve just explored in the previous plot: how do incarceration rates for African Americans vary across the USA? First, I’m going to read in the full prison data kindly provided by the Vera institute. This data comprises the incarcerations made on a yearly basis, at county level, from 1970 to 2016:

prison_raw <- read_csv("https://raw.githubusercontent.com/rfordatascience/tidytuesday/master/data/2019/2019-01-22/prison_population.csv")

prison_raw

## # A tibble: 1,327,797 x 9
##     year state county_name urbanicity region division pop_category
##    <int> <chr> <chr>       <chr>      <chr>  <chr>    <chr>       
##  1  1970 AL    Autauga Co… small/mid  South  East So… Total       
##  2  1971 AL    Autauga Co… small/mid  South  East So… Total       
##  3  1972 AL    Autauga Co… small/mid  South  East So… Total       
##  4  1973 AL    Autauga Co… small/mid  South  East So… Total       
##  5  1974 AL    Autauga Co… small/mid  South  East So… Total       
##  6  1975 AL    Autauga Co… small/mid  South  East So… Total       
##  7  1976 AL    Autauga Co… small/mid  South  East So… Total       
##  8  1977 AL    Autauga Co… small/mid  South  East So… Total       
##  9  1978 AL    Autauga Co… small/mid  South  East So… Total       
## 10  1979 AL    Autauga Co… small/mid  South  East So… Total       
## # ... with 1,327,787 more rows, and 2 more variables: population <int>,
## #   prison_population <int>
…
Based on the plot above, we have identified two locations in the US with particularly high imprisonment rates pertaining to African Americans. Another question we an explore is which areas have shown the most change (good or bad) over time? To answer this we can look at the standard deviation of African American incarceration rates associated with each state over time:

highly_variable_states <- prison_raw %>%
  filter(population != 0, !is.na(population),
         prison_population != 0, !is.na(prison_population)) %>%
  mutate(imp_rate = prison_population / population) %>%
  filter(pop_category == "Black") %>%
  group_by(state) %>%
  summarise(sd_imp_rate = sd(imp_rate, na.rm = TRUE)) %>%
  arrange(desc(sd_imp_rate))

highly_variable_states

## # A tibble: 40 x 2
##    state sd_imp_rate
##    <chr>       <dbl>
##  1 NE         1.31  
##  2 NC         0.477 
##  3 UT         0.420 
##  4 TN         0.202 
##  5 OK         0.146 
##  6 MO         0.0832
##  7 WI         0.0760
##  8 SD         0.0460
##  9 IL         0.0456
## 10 IN         0.0383
## # ... with 30 more rows
…
