…
library(tidyverse)
library(magrittr)
library(lubridate)
library(broom)

species_raw <- read_csv("https://raw.githubusercontent.com/rfordatascience/tidytuesday/master/data/2018/2018-12-18/allCetaceanData.csv") %>%
  select(-X1) # X1 appears to be a meaningless extra variable

As an initial step, let us investigate the distribution of various categorical variables within the dataset. We will start with the number of different species:

# most species are of the bottleneck & orca variety
species_raw %>%
  count(species, sort = TRUE)

## # A tibble: 37 x 2
##    species                      n
##    <chr>                    <int>
##  1 Bottlenose                1668
##  2 Killer Whale; Orca          79
##  3 Beluga                      68
##  4 White-sided, Pacific        56
##  5 Pacific White-Sided         41
##  6 Commerson's                 37
##  7 Spinner                     36
##  8 Beluga Whale                28
##  9 Short-Finned Pilot Whale    25
## 10 Pilot, Short-fin            22
## # ... with 27 more rows
…
So, now, for each species we have a known (or, in the case of captured cetaceans, estimated) lifespan. I will first narrow down the scope of the fields in the data

species_deceased_clean <- species_deceased %>%
  transmute(species, 
            sex, 
            accuracy, 
            acquisition, 
            originDate,
            seaworld_ind = ifelse(str_detect(transfers, regex("SeaWorld", ignore_case = TRUE)), "SeaWorld by-catch", "Other by-catch"), 
            lifespan) %>%
  mutate_if(is.character, as.factor)

species_deceased_clean 

## # A tibble: 1,558 x 7
##    species   sex   accuracy acquisition originDate seaworld_ind   lifespan
##    <fct>     <fct> <fct>    <fct>       <date>     <fct>             <dbl>
##  1 Bottleno… M     e        Capture     1974-07-10 Other by-catch    NA   
##  2 Commerso… F     e        Capture     1983-11-23 SeaWorld by-c…    32.2 
##  3 Commerso… M     a        Born        1993-09-16 SeaWorld by-c…    20.6 
##  4 Commerso… M     a        Born        1998-10-23 SeaWorld by-c…    15.2 
##  5 Bottleno… F     e        Capture     1960-11-01 Other by-catch    17.5 
##  6 Bottleno… M     e        Capture     1964-01-01 Other by-catch    10.7 
##  7 Bottleno… F     e        Capture     1964-08-15 Other by-catch    25.4 
##  8 Bottleno… M     e        Capture     1972-11-28 Other by-catch     2.78
##  9 Bottleno… F     e        Capture     1973-08-02 Other by-catch    21.4 
## 10 Bottleno… M     e        Capture     1975-05-13 Other by-catch     3.21
## # ... with 1,548 more rows
…
It can be very tempting to draw statistical conclusions from a plot like this; however, it should be noted that we previously inspected the distribution of species available in the data and the vast majority of cetaceans fell under the ‘Bottlenose’ category. This means that the high lifespan of the Amazon River / Boto species is slightly suspicious and may be due to a sampling error. We can confirm the distribution of various species by quick inspection of the variable in the deceased data:

# top 10 species
species_deceased_clean %>%
  count(species) %>%
  arrange(desc(n))

## # A tibble: 34 x 2
##    species                      n
##    <fct>                    <int>
##  1 Bottlenose                1119
##  2 Killer Whale; Orca          56
##  3 Beluga                      44
##  4 White-sided, Pacific        43
##  5 Pacific White-Sided         41
##  6 Commerson's                 33
##  7 Spinner                     33
##  8 Beluga Whale                28
##  9 Short-Finned Pilot Whale    25
## 10 Pseudorca                   18
## # ... with 24 more rows

# bottom 10 species
species_deceased_clean %>%
  count(species) %>%
  arrange(n)

## # A tibble: 34 x 2
##    species                      n
##    <fct>                    <int>
##  1 Atlantic Spotted             1
##  2 Common, Long-beak            1
##  3 River, Amazon                1
##  4 Spotted, Pantropical         1
##  5 Tucuxi                       1
##  6 Unspecified Pilot Whales     1
##  7 Amazon River; Boto           2
##  8 Common; Saddleback           2
##  9 Pilot, Short-finned          2
## 10 Atlantic White- Sided        3
## # ... with 24 more rows
…
