Rapid analysis of student-teacher ratios worldwide - Johnny's Blog
…
Limited by time constraints and actuarial exams, this is a relatively short post; however, it showcases some of the functional tools you can use in purrr to make your code more powerful.

Data import

Let’s first read in the data from the github repo:

library(tidyverse)
library(ggrepel)
theme_set(theme_light())
# we use 'ts' to refer to 'teacher-student'
ts_ratio_raw <- readr::read_csv("https://raw.githubusercontent.com/rfordatascience/tidytuesday/master/data/2019/2019-05-07/student_teacher_ratio.csv")

ts_ratio_raw 

## # A tibble: 5,189 x 8
##    edulit_ind indicator country_code country  year student_ratio flag_codes
##    <chr>      <chr>     <chr>        <chr>   <int>         <dbl> <chr>     
##  1 PTRHC_2    Lower Se… MRT          Maurit…  2013         56.6  <NA>      
##  2 PTRHC_2    Lower Se… MRT          Maurit…  2014         51.9  <NA>      
##  3 PTRHC_2    Lower Se… MRT          Maurit…  2015         53.2  <NA>      
##  4 PTRHC_2    Lower Se… MRT          Maurit…  2016         38.2  <NA>      
##  5 PTRHC_1    Primary … COD          Democr…  2012         34.7  <NA>      
##  6 PTRHC_1    Primary … COD          Democr…  2013         37.1  <NA>      
##  7 PTRHC_1    Primary … COD          Democr…  2014         35.3  <NA>      
##  8 PTRHC_1    Primary … COD          Democr…  2015         33.2  <NA>      
##  9 PTRHC_3    Upper Se… SYR          Syrian…  2013          8.47 <NA>      
## 10 PTRHC_02   Pre-Prim… GNQ          Equato…  2012         17.5  <NA>      
## # … with 5,179 more rows, and 1 more variable: flags <chr>

Exploratory data analysis

First, let’s have a little look at how many countries are contained in the dataset:

ts_ratio_raw %>%
  count(country) %>%
  arrange(desc(n))

## # A tibble: 232 x 2
##    country                                        n
##    <chr>                                      <int>
##  1 Latin America and the Caribbean               60
##  2 Small Island Developing States                60
##  3 World                                         60
##  4 Austria                                       42
##  5 China, Macao Special Administrative Region    42
##  6 Holy See                                      42
##  7 Uzbekistan                                    42
##  8 Ghana                                         40
##  9 Bahrain                                       39
## 10 Mexico                                        39
## # … with 222 more rows
…
