Exploring the speeches and letters of Abraham Lincoln - Johnny's Blog
…
I’m using the term ‘date’ very loosely here. What I am doing, in reality, is extracting the year (as opposed to the precise date) in which the letter was written and that is sufficient for the purpose of this exercise as we will see shortly. I also apply other pre-processing steps to the raw data, supplemented by comments below:

lincoln_clean <- lincoln_raw %>%
  unnest_tokens(output = word, input = text) %>%
  mutate(unique_id = row_number(), year = ifelse(str_detect(word, regex("\\d{4}")), word, NA_character_)) %>%
  fill(year) %>% # assume that the extracted year is constant for a given letter up until a new letter is written 
  mutate_at(vars(year), .funs = funs(as.integer)) %>%
  filter(between(year, 1832, 1865), # these are the only dates at which it was possible for Lincoln to have written something 
         !str_detect(word, "lincoln"), # I don't want Lincoln's name to be included as a value
         str_detect(word, "[a-z]")) %>% # get rid of any numbers or digits - these aren't 'words' I want to consider
  anti_join(stop_words) # get rid of words like 'to', 'the' or 'and' 

lincoln_clean

## # A tibble: 151,038 x 4
##    gutenberg_id word       unique_id  year
##           <int> <chr>          <int> <int>
##  1         2653 spoke             75  1864
##  2         2653 grave             83  1864
##  3         2653 question          84  1864
##  4         2653 government        87  1864
##  5         2653 strong            90  1864
##  6         2653 liberties         93  1864
##  7         2653 people            96  1864
##  8         2653 strong            99  1864
##  9         2653 maintain         102  1864
## 10         2653 existence        104  1864
## # … with 151,028 more rows
…
You can see some clear themes emerging already such as slavery and war.

Sentiment tracker plot

One cool thing we can do that is facilitated by the tidytext package is the ability to track individual ‘sentiments’ over time. By ‘sentiment’ we are referring to the ‘positivity’ or ‘negativity’ of emotion over time. This is enabled by the tidytext::get_sentiments() function and the correspoding afinn lexicon:

term_scores <- get_sentiments(lexicon = "afinn")

term_scores 

## # A tibble: 2,476 x 2
##    word       score
##    <chr>      <int>
##  1 abandon       -2
##  2 abandoned     -2
##  3 abandons      -2
##  4 abducted      -2
##  5 abduction     -2
##  6 abductions    -2
##  7 abhor         -3
##  8 abhorred      -3
##  9 abhorrent     -3
## 10 abhors        -3
## # … with 2,466 more rows
…
Whilst this series appears to be relatively stationary, I’ve highlighted particularly strong periods of emotion with different colours (red is more negative). This is a good point to dig deeper into that period between 1840 and 1845 to figure out whether this supposed low-to-high jump is simply a result of insufficient data, especially during the years 1841 and 1843, or whether it is a reflection of a genuine emotional journey experienced by Lincoln during this period of time.

Indeed, a quick inspection of the year variable indicates that insufficient data might be the cause of the emotional spikes:

# an overall inspection of year-counts
lincoln_clean %>%
  count(year, sort = TRUE)

## # A tibble: 34 x 2
##     year     n
##    <int> <int>
##  1  1863 20797
##  2  1861 19688
##  3  1862 18650
##  4  1864 15767
##  5  1858 12988
##  6  1854  9859
##  7  1865  6007
##  8  1856  5347
##  9  1850  5062
## 10  1860  4033
## # … with 24 more rows
…
lincoln_slopes <- lincoln_counts %>%
  nest(-word) %>%
  mutate(log_mod = map(data, ~ glm(cbind(successes, trials - successes) ~ year, family = "binomial", data = .))) %>%
  unnest(map(log_mod, broom::tidy)) %>%
  filter(term == "year") %>%
  arrange(desc(estimate))

lincoln_slopes

## # A tibble: 177 x 6
##    word       term  estimate std.error statistic   p.value
##    <chr>      <chr>    <dbl>     <dbl>     <dbl>     <dbl>
##  1 january    year    0.385    0.0125      30.8  1.16e-208
##  2 washington year    0.150    0.00181     82.9  0.       
##  3 march      year    0.131    0.00951     13.8  3.31e- 43
##  4 war        year    0.0905   0.00182     49.8  0.       
##  5 june       year    0.0834   0.00717     11.6  2.81e- 31
##  6 received   year    0.0544   0.00348     15.6  4.88e- 55
##  7 day        year    0.0506   0.00216     23.4  9.66e-121
##  8 force      year    0.0504   0.00387     13.0  1.04e- 38
##  9 election   year    0.0468   0.00330     14.2  1.44e- 45
## 10 morning    year    0.0445   0.00901      4.94 7.75e-  7
## # … with 167 more rows
…
